<?xml version="1.0" encoding="UTF-8"?>
<svg width="59px" height="59px" viewBox="0 0 59 59" version="1.1" xmlns="http://www.w3.org/2000/svg" xmlns:xlink="http://www.w3.org/1999/xlink">
    <!-- Generator: Sketch 51.2 (57519) - http://www.bohemiancoding.com/sketch -->
    <title>button</title>
    <desc>Created with Sketch.</desc>
    <defs>
        <circle id="path-1" cx="15.5" cy="15.5" r="15.5"></circle>
        <filter x="-67.7%" y="-67.7%" width="235.5%" height="235.5%" filterUnits="objectBoundingBox" id="filter-2">
            <feMorphology radius="0.5" operator="dilate" in="SourceAlpha" result="shadowSpreadOuter1"></feMorphology>
            <feOffset dx="0" dy="0" in="shadowSpreadOuter1" result="shadowOffsetOuter1"></feOffset>
            <feGaussianBlur stdDeviation="6.5" in="shadowOffsetOuter1" result="shadowBlurOuter1"></feGaussianBlur>
            <feColorMatrix values="0 0 0 0 0.168627451   0 0 0 0 0.180392157   0 0 0 0 0.333333333  0 0 0 1 0" type="matrix" in="shadowBlurOuter1"></feColorMatrix>
        </filter>
    </defs>
    <g id="UI" stroke="none" stroke-width="1" fill="none" fill-rule="evenodd">
        <g id="partners" transform="translate(-908.000000, -476.000000)">
            <g id="3" transform="translate(832.000000, 364.000000)">
                <g id="1" transform="translate(20.000000, 67.000000)">
                    <g id="button" transform="translate(70.000000, 59.000000)">
                        <g id="Oval-2">
                            <use fill="black" fill-opacity="1" filter="url(#filter-2)" xlink:href="#path-1"></use>
                            <use fill="#51C458" fill-rule="evenodd" xlink:href="#path-1"></use>
                        </g>
                        <g id="arrow" transform="translate(9.500000, 15.500000) rotate(90.000000) translate(-9.500000, -15.500000) translate(3.000000, 12.000000)" stroke="#1A2138" stroke-linecap="round" stroke-linejoin="round">
                            <path d="M0.5,0.5 L6.5,7" id="Line-4"></path>
                            <path d="M12.5,0.5 L6.5,7" id="Line-4-Copy"></path>
                        </g>
                        <g id="arrow-copy" transform="translate(22.500000, 15.000000) rotate(-90.000000) translate(-22.500000, -15.000000) translate(16.500000, 11.500000)" stroke="#1A2138" stroke-linecap="round" stroke-linejoin="round">
                            <path d="M0,0 L6,7" id="Line-4"></path>
                            <path d="M12,0 L6,7" id="Line-4-Copy"></path>
                        </g>
                    </g>
                </g>
            </g>
        </g>
    </g>
</svg>