<?xml version="1.0" encoding="UTF-8"?>
<svg width="30px" height="30px" viewBox="0 0 30 30" version="1.1" xmlns="http://www.w3.org/2000/svg" xmlns:xlink="http://www.w3.org/1999/xlink">
    <!-- Generator: Sketch 51.2 (57519) - http://www.bohemiancoding.com/sketch -->
    <title>USD</title>
    <desc>Created with Sketch.</desc>
    <defs></defs>
    <g id="UI" stroke="none" stroke-width="1" fill="none" fill-rule="evenodd">
        <g id="output" transform="translate(-876.000000, -680.000000)">
            <g id="recent-transactions" transform="translate(861.000000, 343.000000)">
                <g id="3-copy-3" transform="translate(0.000000, 327.000000)">
                    <g id="USD" transform="translate(15.000000, 10.000000)">
                        <circle id="Oval" fill="#2B2E55" cx="15" cy="15" r="15"></circle>
                        <text id="$" font-family=".HelveticaNeueDeskInterface-Regular, .Helvetica Neue DeskInterface" font-size="16" font-weight="normal" fill="#E0E0E0">
                            <tspan x="10" y="21">$</tspan>
                        </text>
                    </g>
                </g>
            </g>
        </g>
    </g>
</svg>